…
To start using `LinkPrediction`, load the package:

``` r
library("LinkPrediction")
```

`LinkPrediction` includes two complex network datasets (type `?karate_club` and `?jazz_collab` in R for more information). Let's use the Jazz Collaboration network to illustrate the use of the package.

First, let's apply the Common Neighbours link predictor to the network:

``` r
(cn <- lp_cn(jazz_collab))
```

    ## # A tibble: 16,761 x 3
    ##    nodeA nodeB   scr
    ##    <int> <int> <dbl>
    ##  1     7   111    41
    ##  2    27    79    37
    ##  3    27    66    33
    ##  4     7   113    29
    ##  5    66   118    29
    ##  6    74    89    28
    ##  7    88    92    27
    ##  8    23   124    27
    ##  9    53    66    26
    ## 10    27    99    26
    ## # ... with 16,751 more rows
…
